role,components,points
Football Competiton ,Participation,2
Unboxing Metaverse - Helper,Service,2
Attend ChatGPT Sharing,Enrichment,2
Hackhathon,Participation,2
Inter College Sport Competition,Participation,4
Literary Club EXCO,Leadership,4
Football Competiton  - Organizer,Leadership,4
Attend Sharing Session - IT related,Enrichment,2
Basket Ball Competition,Participation,2
Give donations to the needy,Community Service,3
Student Helper - IT Showcase,Service,2
Football Competition - Winner,Achievement,5
Student Helper - Foudation Day,Service,2
Project Showcase - Exhibitor,Participation,2
FYP Group Leader,Leadership,2
 Chief Councillor,Leadership,9
Vice President for Clubs,Leadership,9
President for Clubs,Leadership,9
Deputy Councillor,Leadership,9
Hostel Councillor,Leadership,6
Games Councillor ,Leadership,6
Culture Councillor,Leadership,6
Class Representative,Leadership,3