name,userid,email,designation,joinedYear
Chimi   Dendup,RUB2203014,chimidendup.gcit@rub.edu.bt,Lecturer,2019
Chimi Dema,RUB1702012 ,chimi.gcit@rub.edu.bt,Lecturer,2019
Chiran jeevi Adhikari,RUB2107032,chiranjeeviadhikari.gcit@rub.edu.bt,Lecturer,2019
Jamyang  Choden,RUB2203012,jamyangchoden.gcit@rub.edu.bt,Lecturer,2019